pedestrian 1 706.0 395.0735294117647 738.0 482.4264705882353
pedestrian 1 374.0 478.4558823529412 434.0 563.8235294117648
pedestrian 1 1032.0 504.2647058823529 1060.0 555.8823529411765
pedestrian 0.9 856.0 510.22058823529414 886.0 637.2794117647059
pedestrian 0.9 894.0 518.1617647058823 924.0 615.4411764705883
pedestrian 1 788.0 530.0735294117648 822.0 633.3088235294118
pedestrian 0.9 914.0 553.8970588235294 940.0 694.8529411764706
pedestrian 1 974.0 591.6176470588235 1008.0 696.8382352941177
pedestrian 0.9 914.0 585.6617647058823 940.0 694.8529411764706
pedestrian 1 1134.0 704.7794117647059 1176.0 792.1323529411765
