pedestrian 1 610.0 212.4264705882353 642.0 287.86764705882354
pedestrian 1 626.0 397.05882352941177 666.0 504.2647058823529
pedestrian 1 818.0 563.8235294117648 858.0 665.0735294117648
pedestrian 0.9 690.0 571.7647058823529 720.0 700.8088235294118
pedestrian 0.9 648.0 601.5441176470588 680.0 722.6470588235294
